TEST EDIT FROM:Sat, Jun 18, 2016 11:51:05 PM
TEST EDIT FROM:Sa, 18. Jun 2016 23:52:11
TEST EDIT FROM:Sa, 18. Jun 2016 23:53:36
TEST EDIT FROM:Sat, Jun 18, 2016 11:57:11 PM
TEST EDIT FROM:Sat, Jun 18, 2016 11:58:24 PM
TEST EDIT FROM:Sat, Jun 18, 2016 11:58:54 PM
TEST EDIT FROM:Sun, Jun 19, 2016 12:04:46 AM
TEST EDIT FROM:So, 19. Jun 2016 00:06:48
TEST EDIT FROM:So, 19. Jun 2016 00:08:59
TEST EDIT FROM:Sun, Jun 19, 2016 12:10:21 AM
TEST EDIT FROM:Sun, Jun 19, 2016 12:22:42 AM
TEST EDIT FROM:Sun, Jun 19, 2016  1:42:56 AM
TEST EDIT FROM:Sun, Jun 19, 2016  1:43:21 AM
TEST EDIT FROM:Sun, Jun 19, 2016  1:44:43 AM
TEST EDIT FROM:Sun, Jun 19, 2016  1:48:42 AM
TEST EDIT FROM:Sun, Jun 19, 2016  2:07:53 AM
TEST EDIT FROM:Sun, Jun 19, 2016  2:08:37 AM
TEST EDIT FROM:Sun, Jun 19, 2016  2:10:02 AM
TEST EDIT FROM:Sun, Jun 19, 2016  2:10:32 AM
TEST EDIT FROM:Sun, Jun 19, 2016  2:10:36 AM
TEST EDIT FROM:Sun, Jun 19, 2016  2:10:45 AM
TEST EDIT FROM:Sun, Jun 19, 2016  2:10:55 AM
TEST EDIT FROM:Sun, Jun 19, 2016  2:11:05 AM
TEST EDIT FROM:Sun Jun 19 03:58:31 CEST 2016
TEST EDIT FROM:Sun Jun 19 04:00:31 CEST 2016
TEST EDIT FROM:Sun Jun 19 04:00:55 CEST 2016
TEST EDIT FROM:Sun, Jun 19, 2016  4:02:22 AM
TEST EDIT FROM:Sun, Jun 19, 2016  4:02:52 AM
TEST EDIT FROM:Sun, Jun 19, 2016  4:05:43 AM
TEST EDIT FROM:So, 19. Jun 2016 04:07:52
TEST EDIT FROM:So, 19. Jun 2016 04:08:30
TEST EDIT FROM:Sun, Jun 19, 2016  4:10:00 AM
TEST EDIT FROM:Sun Jun 19 04:15:22 CEST 2016
TEST EDIT FROM:Sun Jun 19 04:15:44 CEST 2016
TEST EDIT FROM:Sun Jun 19 04:19:00 CEST 2016
TEST EDIT FROM:Sun Jun 19 14:17:21 CEST 2016
TEST EDIT FROM:Sun Jun 19 14:17:23 CEST 2016
TEST EDIT FROM:Sun, Jun 19, 2016  2:18:40 PM
TEST EDIT FROM:Sun, Jun 19, 2016  2:18:52 PM
TEST EDIT FROM:Sun, Jun 19, 2016  2:19:37 PM
TEST EDIT FROM:So, 19. Jun 2016 14:20:59
TEST EDIT FROM:So, 19. Jun 2016 14:21:59
TEST EDIT FROM:So, 19. Jun 2016 14:22:35
TEST EDIT FROM:So, 19. Jun 2016 14:22:44
TEST EDIT FROM:So, 19. Jun 2016 14:22:47
TEST EDIT FROM:So, 19. Jun 2016 14:23:36
TEST EDIT FROM:Sun, Jun 19, 2016  2:24:39 PM
TEST EDIT FROM:So, 19. Jun 2016 14:25:41
TEST EDIT FROM:Sun Jun 19 17:05:09 CEST 2016
TEST EDIT FROM:So, 19. Jun 2016 17:34:10
TEST EDIT FROM:So, 19. Jun 2016 17:41:11
TEST EDIT FROM:So, 19. Jun 2016 17:43:24
TEST EDIT FROM:So, 19. Jun 2016 17:43:28
TEST EDIT FROM:Sun Jun 19 17:45:19 CEST 2016
TEST EDIT FROM:Sun Jun 19 17:45:23 CEST 2016
